0.00000,0.00000,22.24000
0.00000,0.05000,20.61000
0.00000,0.10000,18.98000
0.00000,0.15000,17.39000
0.00000,0.20000,15.80000
0.00000,0.25000,14.23000
0.00000,0.30000,12.68000
0.00000,0.35000,11.16000
0.00000,0.40000,9.67000
0.00000,0.45000,8.22000
0.00000,0.50000,6.81000
0.00000,0.55000,5.46000
0.00000,0.60000,4.17000
0.00000,0.65000,2.98000
0.00000,0.70000,1.47000
0.00000,0.75000,0.28000
0.00000,0.80000,0.03000
0.00000,0.85000,0.01000
0.00000,0.90000,0.01000
0.00000,0.95000,0.01000
0.05000,0.00000,21.47000
0.05000,0.05000,19.85000
0.05000,0.10000,18.28000
0.05000,0.15000,16.71000
0.05000,0.20000,15.16000
0.05000,0.25000,13.62000
0.05000,0.30000,12.11000
0.05000,0.35000,10.63000
0.05000,0.40000,9.18000
0.05000,0.45000,7.77000
0.05000,0.50000,6.40000
0.05000,0.55000,5.09000
0.05000,0.60000,3.86000
0.05000,0.65000,2.71000
0.05000,0.70000,1.08000
0.05000,0.75000,0.18000
0.05000,0.80000,0.02000
0.05000,0.85000,0.01000
0.05000,0.90000,0.01000
0.05000,0.95000,0.01000
0.10000,0.00000,20.70000
0.10000,0.05000,19.15000
0.10000,0.10000,17.59000
0.10000,0.15000,16.05000
0.10000,0.20000,14.54000
0.10000,0.25000,13.04000
0.10000,0.30000,11.56000
0.10000,0.35000,10.12000
0.10000,0.40000,8.71000
0.10000,0.45000,7.33000
0.10000,0.50000,6.01000
0.10000,0.55000,4.75000
0.10000,0.60000,3.56000
0.10000,0.65000,2.39000
0.10000,0.70000,0.76000
0.10000,0.75000,0.12000
0.10000,0.80000,0.02000
0.10000,0.85000,0.01000
0.10000,0.90000,0.01000
0.10000,0.95000,0.01000
0.15000,0.00000,19.98000
0.15000,0.05000,18.44000
0.15000,0.10000,16.91000
0.15000,0.15000,15.41000
0.15000,0.20000,13.94000
0.15000,0.25000,12.47000
0.15000,0.30000,11.04000
0.15000,0.35000,9.62000
0.15000,0.40000,8.26000
0.15000,0.45000,6.92000
0.15000,0.50000,5.64000
0.15000,0.55000,4.42000
0.15000,0.60000,3.28000
0.15000,0.65000,2.00000
0.15000,0.70000,0.53000
0.15000,0.75000,0.08000
0.15000,0.80000,0.02000
0.15000,0.85000,0.01000
0.15000,0.90000,0.01000
0.15000,0.95000,0.01000
0.20000,0.00000,19.27000
0.20000,0.05000,17.75000
0.20000,0.10000,16.26000
0.20000,0.15000,14.80000
0.20000,0.20000,13.36000
0.20000,0.25000,11.93000
0.20000,0.30000,10.53000
0.20000,0.35000,9.16000
0.20000,0.40000,7.82000
0.20000,0.45000,6.53000
0.20000,0.50000,5.29000
0.20000,0.55000,4.12000
0.20000,0.60000,3.02000
0.20000,0.65000,1.59000
0.20000,0.70000,0.36000
0.20000,0.75000,0.05000
0.20000,0.80000,0.01000
0.20000,0.85000,0.01000
0.20000,0.90000,0.01000
0.20000,0.95000,0.01000
0.25000,0.00000,18.55000
0.25000,0.05000,17.09000
0.25000,0.10000,15.65000
0.25000,0.15000,14.20000
0.25000,0.20000,12.80000
0.25000,0.25000,11.40000
0.25000,0.30000,10.04000
0.25000,0.35000,8.71000
0.25000,0.40000,7.41000
0.25000,0.45000,6.16000
0.25000,0.50000,4.96000
0.25000,0.55000,3.83000
0.25000,0.60000,2.77000
0.25000,0.65000,1.22000
0.25000,0.70000,0.25000
0.25000,0.75000,0.04000
0.25000,0.80000,0.01000
0.25000,0.85000,0.01000
0.25000,0.90000,0.01000
0.25000,0.95000,0.01000
0.30000,0.00000,17.89000
0.30000,0.05000,16.46000
0.30000,0.10000,15.04000
0.30000,0.15000,13.63000
0.30000,0.20000,12.26000
0.30000,0.25000,10.90000
0.30000,0.30000,9.57000
0.30000,0.35000,8.28000
0.30000,0.40000,7.02000
0.30000,0.45000,5.81000
0.30000,0.50000,4.65000
0.30000,0.55000,3.56000
0.30000,0.60000,2.48000
0.30000,0.65000,0.91000
0.30000,0.70000,0.17000
0.30000,0.75000,0.03000
0.30000,0.80000,0.01000
0.30000,0.85000,0.01000
0.30000,0.90000,0.01000
0.30000,0.95000,0.01000
0.35000,0.00000,17.25000
0.35000,0.05000,15.84000
0.35000,0.10000,14.45000
0.35000,0.15000,13.08000
0.35000,0.20000,11.74000
0.35000,0.25000,10.42000
0.35000,0.30000,9.12000
0.35000,0.35000,7.86000
0.35000,0.40000,6.64000
0.35000,0.45000,5.47000
0.35000,0.50000,4.35000
0.35000,0.55000,3.30000
0.35000,0.60000,2.13000
0.35000,0.65000,0.66000
0.35000,0.70000,0.12000
0.35000,0.75000,0.02000
0.35000,0.80000,0.01000
0.35000,0.85000,0.01000
0.35000,0.90000,0.01000
0.35000,0.95000,0.01000
0.40000,0.00000,16.60000
0.40000,0.05000,15.22000
0.40000,0.10000,13.88000
0.40000,0.15000,12.55000
0.40000,0.20000,11.24000
0.40000,0.25000,9.95000
0.40000,0.30000,8.69000
0.40000,0.35000,7.47000
0.40000,0.40000,6.29000
0.40000,0.45000,5.15000
0.40000,0.50000,4.07000
0.40000,0.55000,3.06000
0.40000,0.60000,1.75000
0.40000,0.65000,0.48000
0.40000,0.70000,0.09000
0.40000,0.75000,0.02000
0.40000,0.80000,0.01000
0.40000,0.85000,0.01000
0.40000,0.90000,0.01000
0.40000,0.95000,0.01000
0.45000,0.00000,15.99000
0.45000,0.05000,14.65000
0.45000,0.10000,13.33000
0.45000,0.15000,12.04000
0.45000,0.20000,10.76000
0.45000,0.25000,9.50000
0.45000,0.30000,8.28000
0.45000,0.35000,7.09000
0.45000,0.40000,5.95000
0.45000,0.45000,4.85000
0.45000,0.50000,3.81000
0.45000,0.55000,2.84000
0.45000,0.60000,1.40000
0.45000,0.65000,0.35000
0.45000,0.70000,0.06000
0.45000,0.75000,0.02000
0.45000,0.80000,0.01000
0.45000,0.85000,0.01000
0.45000,0.90000,0.01000
0.45000,0.95000,0.01000
0.50000,0.00000,15.41000
0.50000,0.05000,14.10000
0.50000,0.10000,12.80000
0.50000,0.15000,11.54000
0.50000,0.20000,10.30000
0.50000,0.25000,9.08000
0.50000,0.30000,7.89000
0.50000,0.35000,6.74000
0.50000,0.40000,5.62000
0.50000,0.45000,4.56000
0.50000,0.50000,3.56000
0.50000,0.55000,2.59000
0.50000,0.60000,1.09000
0.50000,0.65000,0.25000
0.50000,0.70000,0.04000
0.50000,0.75000,0.02000
0.50000,0.80000,0.01000
0.50000,0.85000,0.01000
0.50000,0.90000,0.01000
0.50000,0.95000,0.01000
0.55000,0.00000,14.84000
0.55000,0.05000,13.56000
0.55000,0.10000,12.29000
0.55000,0.15000,11.06000
0.55000,0.20000,9.85000
0.55000,0.25000,8.67000
0.55000,0.30000,7.51000
0.55000,0.35000,6.39000
0.55000,0.40000,5.32000
0.55000,0.45000,4.29000
0.55000,0.50000,3.32000
0.55000,0.55000,2.28000
0.55000,0.60000,0.84000
0.55000,0.65000,0.18000
0.55000,0.70000,0.04000
0.55000,0.75000,0.01000
0.55000,0.80000,0.01000
0.55000,0.85000,0.01000
0.55000,0.90000,0.01000
0.55000,0.95000,0.01000
0.60000,0.00000,14.27000
0.60000,0.05000,13.03000
0.60000,0.10000,11.81000
0.60000,0.15000,10.61000
0.60000,0.20000,9.42000
0.60000,0.25000,8.27000
0.60000,0.30000,7.15000
0.60000,0.35000,6.07000
0.60000,0.40000,5.03000
0.60000,0.45000,4.04000
0.60000,0.50000,3.10000
0.60000,0.55000,1.95000
0.60000,0.60000,0.64000
0.60000,0.65000,0.13000
0.60000,0.70000,0.03000
0.60000,0.75000,0.01000
0.60000,0.80000,0.01000
0.60000,0.85000,0.01000
0.60000,0.90000,0.01000
0.60000,0.95000,0.01000
0.65000,0.00000,13.74000
0.65000,0.05000,12.52000
0.65000,0.10000,11.34000
0.65000,0.15000,10.16000
0.65000,0.20000,9.01000
0.65000,0.25000,7.89000
0.65000,0.30000,6.81000
0.65000,0.35000,5.76000
0.65000,0.40000,4.75000
0.65000,0.45000,3.79000
0.65000,0.50000,2.90000
0.65000,0.55000,1.62000
0.65000,0.60000,0.48000
0.65000,0.65000,0.10000
0.65000,0.70000,0.02000
0.65000,0.75000,0.01000
0.65000,0.80000,0.01000
0.65000,0.85000,0.01000
0.65000,0.90000,0.01000
0.65000,0.95000,0.01000
0.70000,0.00000,13.23000
0.70000,0.05000,12.04000
0.70000,0.10000,10.88000
0.70000,0.15000,9.74000
0.70000,0.20000,8.62000
0.70000,0.25000,7.54000
0.70000,0.30000,6.48000
0.70000,0.35000,5.46000
0.70000,0.40000,4.49000
0.70000,0.45000,3.56000
0.70000,0.50000,2.69000
0.70000,0.55000,1.32000
0.70000,0.60000,0.36000
0.70000,0.65000,0.07000
0.70000,0.70000,0.02000
0.70000,0.75000,0.01000
0.70000,0.80000,0.01000
0.70000,0.85000,0.01000
0.70000,0.90000,0.01000
0.70000,0.95000,0.01000
0.75000,0.00000,12.73000
0.75000,0.05000,11.58000
0.75000,0.10000,10.45000
0.75000,0.15000,9.34000
0.75000,0.20000,8.25000
0.75000,0.25000,7.19000
0.75000,0.30000,6.17000
0.75000,0.35000,5.18000
0.75000,0.40000,4.24000
0.75000,0.45000,3.35000
0.75000,0.50000,2.44000
0.75000,0.55000,1.06000
0.75000,0.60000,0.27000
0.75000,0.65000,0.06000
0.75000,0.70000,0.02000
0.75000,0.75000,0.01000
0.75000,0.80000,0.01000
0.75000,0.85000,0.01000
0.75000,0.90000,0.01000
0.75000,0.95000,0.01000
0.80000,0.00000,12.25000
0.80000,0.05000,11.13000
0.80000,0.10000,10.03000
0.80000,0.15000,8.95000
0.80000,0.20000,7.89000
0.80000,0.25000,6.86000
0.80000,0.30000,5.87000
0.80000,0.35000,4.91000
0.80000,0.40000,4.00000
0.80000,0.45000,3.15000
0.80000,0.50000,2.15000
0.80000,0.55000,0.84000
0.80000,0.60000,0.21000
0.80000,0.65000,0.05000
0.80000,0.70000,0.02000
0.80000,0.75000,0.01000
0.80000,0.80000,0.01000
0.80000,0.85000,0.01000
0.80000,0.90000,0.01000
0.80000,0.95000,0.01000
0.85000,0.00000,11.79000
0.85000,0.05000,10.70000
0.85000,0.10000,9.62000
0.85000,0.15000,8.57000
0.85000,0.20000,7.55000
0.85000,0.25000,6.55000
0.85000,0.30000,5.58000
0.85000,0.35000,4.66000
0.85000,0.40000,3.78000
0.85000,0.45000,2.95000
0.85000,0.50000,1.86000
0.85000,0.55000,0.66000
0.85000,0.60000,0.16000
0.85000,0.65000,0.04000
0.85000,0.70000,0.02000
0.85000,0.75000,0.01000
0.85000,0.80000,0.01000
0.85000,0.85000,0.01000
0.85000,0.90000,0.01000
0.85000,0.95000,0.01000
0.90000,0.00000,11.35000
0.90000,0.05000,10.28000
0.90000,0.10000,9.24000
0.90000,0.15000,8.21000
0.90000,0.20000,7.21000
0.90000,0.25000,6.25000
0.90000,0.30000,5.32000
0.90000,0.35000,4.42000
0.90000,0.40000,3.57000
0.90000,0.45000,2.77000
0.90000,0.50000,1.57000
0.90000,0.55000,0.52000
0.90000,0.60000,0.13000
0.90000,0.65000,0.03000
0.90000,0.70000,0.01000
0.90000,0.75000,0.01000
0.90000,0.80000,0.01000
0.90000,0.85000,0.01000
0.90000,0.90000,0.01000
0.90000,0.95000,0.01000
0.95000,0.00000,10.93000
0.95000,0.05000,9.88000
0.95000,0.10000,8.87000
0.95000,0.15000,7.87000
0.95000,0.20000,6.90000
0.95000,0.25000,5.96000
0.95000,0.30000,5.06000
0.95000,0.35000,4.19000
0.95000,0.40000,3.37000
0.95000,0.45000,2.58000
0.95000,0.50000,1.31000
0.95000,0.55000,0.40000
0.95000,0.60000,0.10000
0.95000,0.65000,0.03000
0.95000,0.70000,0.01000
0.95000,0.75000,0.01000
0.95000,0.80000,0.01000
0.95000,0.85000,0.01000
0.95000,0.90000,0.01000
0.95000,0.95000,0.01000
1.00000,0.00000,10.52000
1.00000,0.05000,9.51000
1.00000,0.10000,8.52000
1.00000,0.15000,7.55000
1.00000,0.20000,6.62000
1.00000,0.25000,5.70000
1.00000,0.30000,4.83000
1.00000,0.35000,3.99000
1.00000,0.40000,3.20000
1.00000,0.45000,2.36000
1.00000,0.50000,1.09000
1.00000,0.55000,0.33000
1.00000,0.60000,0.08000
1.00000,0.65000,0.03000
1.00000,0.70000,0.01000
1.00000,0.75000,0.01000
1.00000,0.80000,0.01000
1.00000,0.85000,0.01000
1.00000,0.90000,0.01000
1.00000,0.95000,0.01000
1.00000,1.00000,0.01000
